{ "network": "Mainnet",
  "ico": {
      "company_tokens": "76431859_801260" ,
      "foundation_tokens": "76431859_801260" ,
      "early_tokens": "3_156_502_294100" ,
      "contributors_tokens": "608_297_709_519372" ,
      "wallets" : 31524
  }
}
